Bayesian Statistics Spring 2025 - advanced mlm
…
Don’t need to even attempt a representative sample. All we need is a sample that is large and diverse enough + population data (e.g., from the census).

Estimating the proportion of heterosexual women who kept their maiden name after marriage.

https://www.monicaalexander.com/posts/2019-08-07-mrp/ https://bookdown.org/content/4857/models-with-memory.html#summary-bonus-post-stratification-in-an-example

mrp <- load("mrp.rds")

mrp

[1] "d"           "cell_counts"

d

# A tibble: 4,413 × 5
   kept_name state_name     age_group decade_married educ_group
       <dbl> <chr>          <chr>     <chr>          <chr>     
 1         0 ohio           50        1979           >BA       
 2         0 virginia       35        1999           >BA       
 3         1 new york       35        2009           >BA       
 4         0 rhode island   55        1999           >BA       
 5         0 illinois       35        2009           >BA       
 6         0 north carolina 25        2009           >BA       
 7         1 iowa           35        1999           >BA       
 8         1 texas          35        2009           >BA       
 9         0 south dakota   35        1999           >BA       
10         0 texas          35        2009           >BA       
# ℹ 4,403 more rows

cell_counts

# A tibble: 6,058 × 5
   state_name age_group decade_married educ_group     n
   <chr>      <chr>     <chr>          <chr>      <dbl>
 1 alabama    25        1999           <BA        19012
 2 alabama    25        2009           <BA        37488
 3 alabama    25        1999           >BA          959
 4 alabama    25        2009           >BA         5319
 5 alabama    25        1999           BA          2986
 6 alabama    25        2009           BA         14261
 7 alaska     25        1999           <BA         3320
 8 alaska     25        2009           <BA         7001
 9 alaska     25        1999           >BA          159
10 alaska     25        2009           >BA          435
# ℹ 6,048 more rows
…
Census data we will use to make predictions. We will make predictions for every combination of variable we are interested in (state, age, decade married, edu)

Code

age_prop <- 
  cell_counts %>% 
  group_by(age_group) %>% 
  mutate(prop = n / sum(n)) %>% 
  ungroup()

age_prop

# A tibble: 6,058 × 6
   state_name age_group decade_married educ_group     n      prop
   <chr>      <chr>     <chr>          <chr>      <dbl>     <dbl>
 1 alabama    25        1999           <BA        19012 0.00414  
 2 alabama    25        2009           <BA        37488 0.00816  
 3 alabama    25        1999           >BA          959 0.000209 
 4 alabama    25        2009           >BA         5319 0.00116  
 5 alabama    25        1999           BA          2986 0.000650 
 6 alabama    25        2009           BA         14261 0.00310  
 7 alaska     25        1999           <BA         3320 0.000723 
 8 alaska     25        2009           <BA         7001 0.00152  
 9 alaska     25        1999           >BA          159 0.0000346
10 alaska     25        2009           >BA          435 0.0000947
# ℹ 6,048 more rows

p <- mlm.mrp %>% 
  add_predicted_draws(newdata = age_prop %>% 
                        filter(age_group > 20, 
                               age_group < 80, 
                               decade_married > 1969),
                      allow_new_levels = T)
p

# A tibble: 24,232,000 × 11
# Groups:   state_name, age_group, decade_married, educ_group, n, prop, .row
#   [6,058]
   state_name age_group decade_married educ_group     n    prop  .row .chain
   <chr>      <chr>     <chr>          <chr>      <dbl>   <dbl> <int>  <int>
 1 alabama    25        1999           <BA        19012 0.00414     1     NA
 2 alabama    25        1999           <BA        19012 0.00414     1     NA
 3 alabama    25        1999           <BA        19012 0.00414     1     NA
 4 alabama    25        1999           <BA        19012 0.00414     1     NA
 5 alabama    25        1999           <BA        19012 0.00414     1     NA
 6 alabama    25        1999           <BA        19012 0.00414     1     NA
 7 alabama    25        1999           <BA        19012 0.00414     1     NA
 8 alabama    25        1999           <BA        19012 0.00414     1     NA
 9 alabama    25        1999           <BA        19012 0.00414     1     NA
10 alabama    25        1999           <BA        19012 0.00414     1     NA
# ℹ 24,231,990 more rows
# ℹ 3 more variables: .iteration <int>, .draw <int>, .prediction <int>
…
library(tidybayes)
get_variables(med.1)

 [1] "b_Y_Intercept" "b_M_Intercept" "b_Y_X"         "b_Y_M"        
 [5] "b_M_X"         "sigma_Y"       "sigma_M"       "Intercept_Y"  
 [9] "Intercept_M"   "lprior"        "lp__"          "accept_stat__"
[13] "treedepth__"   "stepsize__"    "divergent__"   "n_leapfrog__" 
[17] "energy__"     

Code

med.1 %>% 
  spread_draws(b_Y_M, b_M_X,b_Y_X) 

# A tibble: 4,000 × 6
   .chain .iteration .draw b_Y_M b_M_X   b_Y_X
    <int>      <int> <int> <dbl> <dbl>   <dbl>
 1      1          1     1 0.671 0.717 -0.0804
 2      1          2     2 0.708 0.508 -0.197 
 3      1          3     3 0.693 0.735 -0.0185
 4      1          4     4 0.693 0.735 -0.0185
 5      1          5     5 0.742 0.911 -0.197 
 6      1          6     6 0.736 0.307 -0.108 
 7      1          7     7 0.694 0.547 -0.153 
 8      1          8     8 0.752 0.658 -0.0585
 9      1          9     9 0.704 0.637 -0.214 
10      1         10    10 0.924 0.552 -0.197 
# ℹ 3,990 more rows
…
melsm.2 %>% 
  spread_draws(b_day01) %>% 
  median_qi()

# A tibble: 1 × 6
  b_day01 .lower  .upper .width .point .interval
    <dbl>  <dbl>   <dbl>  <dbl> <chr>  <chr>    
1  -0.157 -0.263 -0.0541   0.95 median qi       

Code

melsm.2 %>% 
spread_draws(b_sigma_Intercept,r_record_id__sigma[ID, term]) 

# A tibble: 1,544,000 × 7
# Groups:   ID, term [193]
   .chain .iteration .draw b_sigma_Intercept    ID term      r_record_id__sigma
    <int>      <int> <int>             <dbl> <int> <chr>                  <dbl>
 1      1          1     1            -0.711     1 Intercept             0.209 
 2      1          1     1            -0.711     2 Intercept            -1.30  
 3      1          1     1            -0.711     3 Intercept             0.0969
 4      1          1     1            -0.711     4 Intercept             0.491 
 5      1          1     1            -0.711     5 Intercept            -1.03  
 6      1          1     1            -0.711     6 Intercept             0.419 
 7      1          1     1            -0.711     7 Intercept             0.160 
 8      1          1     1            -0.711     8 Intercept            -0.988 
 9      1          1     1            -0.711     9 Intercept            -0.592 
10      1          1     1            -0.711    10 Intercept            -0.391 
# ℹ 1,543,990 more rows
…
# A tibble: 1 × 6
  sigma_day1 .lower .upper .width .point .interval
       <dbl>  <dbl>  <dbl>  <dbl> <chr>  <chr>    
1      0.425  0.379  0.475   0.95 median qi       

Code

 melsm %>% 
  data_grid(day01 = seq_range(day01, n = 20), .model = melsm) %>% 
  add_epred_draws(melsm.3, re_formula = NA, dpar = T) %>% 
  ungroup() %>% 
  select(day01, .epred, mu, sigma)

# A tibble: 160,000 × 4
   day01 .epred     mu sigma
   <dbl>  <dbl>  <dbl> <dbl>
 1     0 0.144  0.144  0.491
 2     0 0.121  0.121  0.494
 3     0 0.0992 0.0992 0.479
 4     0 0.0858 0.0858 0.461
 5     0 0.114  0.114  0.497
 6     0 0.111  0.111  0.472
 7     0 0.111  0.111  0.480
 8     0 0.102  0.102  0.487
 9     0 0.0723 0.0723 0.480
10     0 0.0899 0.0899 0.495
# ℹ 159,990 more rows
…
Lets look at random effects. Remember we fit a random effect for both the intercept and the slope (time)

Code

melsm.3 %>% 
spread_draws(r_record_id__sigma[ID, term]) %>% 
  mutate(r_record_id__sigma = exp(r_record_id__sigma)) 

# A tibble: 3,088,000 × 6
# Groups:   ID, term [386]
      ID term  r_record_id__sigma .chain .iteration .draw
   <int> <chr>              <dbl>  <int>      <int> <int>
 1     1 day01              1.52       1          1     1
 2     1 day01              0.917      1          2     2
 3     1 day01              1.01       1          3     3
 4     1 day01              1.50       1          4     4
 5     1 day01              0.908      1          5     5
 6     1 day01              1.24       1          6     6
 7     1 day01              1.08       1          7     7
 8     1 day01              1.26       1          8     8
 9     1 day01              1.02       1          9     9
10     1 day01              0.898      1         10    10
# ℹ 3,087,990 more rows
…
missing data posterior

Code

imp.2 %>% 
  spread_draws(Ymi_chl[ID]) 

# A tibble: 40,000 × 5
# Groups:   ID [10]
      ID Ymi_chl .chain .iteration .draw
   <int>   <dbl>  <int>      <int> <int>
 1     1    134.      1          1     1
 2     1    127.      1          2     2
 3     1    110.      1          3     3
 4     1    149.      1          4     4
 5     1    193.      1          5     5
 6     1    135.      1          6     6
 7     1    218.      1          7     7
 8     1    111.      1          8     8
 9     1    196.      1          9     9
10     1    147.      1         10    10
# ℹ 39,990 more rows
…
Code

spank %>%
  data_grid(study, id, se)

# A tibble: 819,180 × 3
   study                                         id     se
   <chr>                                      <int>  <dbl>
 1 " Eisenberg, Chang, Ma, and Huang (2009) "     1 0.0153
 2 " Eisenberg, Chang, Ma, and Huang (2009) "     1 0.0179
 3 " Eisenberg, Chang, Ma, and Huang (2009) "     1 0.0306
 4 " Eisenberg, Chang, Ma, and Huang (2009) "     1 0.0332
 5 " Eisenberg, Chang, Ma, and Huang (2009) "     1 0.0408
 6 " Eisenberg, Chang, Ma, and Huang (2009) "     1 0.0408
 7 " Eisenberg, Chang, Ma, and Huang (2009) "     1 0.0408
 8 " Eisenberg, Chang, Ma, and Huang (2009) "     1 0.0434
 9 " Eisenberg, Chang, Ma, and Huang (2009) "     1 0.0459
10 " Eisenberg, Chang, Ma, and Huang (2009) "     1 0.0485
# ℹ 819,170 more rows
…
Code

irt2.dat <- irt.2 %>% 
  spread_draws(b_delta_Intercept, b_logalpha_Intercept, r_item__logalpha[item,],r_item__delta[item,]) %>% 
  ungroup() %>% 
  tidyr::expand(nesting(.draw, b_delta_Intercept, b_logalpha_Intercept, item, r_item__logalpha,r_item__delta), theta = seq(from = -6, to = 6, length.out = 100)) %>% 
  mutate(p = inv_logit_scaled(exp(b_logalpha_Intercept + r_item__logalpha) * (b_delta_Intercept + theta + r_item__delta)))
irt2.dat

# A tibble: 9,600,000 × 8
   .draw b_delta_Intercept b_logalpha_Intercept item      r_item__logalpha
   <int>             <dbl>                <dbl> <chr>                <dbl>
 1     1           -0.0403                0.852 S1DoCurse           0.0862
 2     1           -0.0403                0.852 S1DoCurse           0.0862
 3     1           -0.0403                0.852 S1DoCurse           0.0862
 4     1           -0.0403                0.852 S1DoCurse           0.0862
 5     1           -0.0403                0.852 S1DoCurse           0.0862
 6     1           -0.0403                0.852 S1DoCurse           0.0862
 7     1           -0.0403                0.852 S1DoCurse           0.0862
 8     1           -0.0403                0.852 S1DoCurse           0.0862
 9     1           -0.0403                0.852 S1DoCurse           0.0862
10     1           -0.0403                0.852 S1DoCurse           0.0862
# ℹ 9,599,990 more rows
# ℹ 3 more variables: r_item__delta <dbl>, theta <dbl>, p <dbl>
…
