Bayesian Statistics Spring 2025 - Intro
…
Posterior distribution (ie results)

Code

fit.1.bayesian %>% 
spread_draws(b_Intercept, b_parent)

# A tibble: 4,000 × 5
   .chain .iteration .draw b_Intercept b_parent
    <int>      <int> <int>       <dbl>    <dbl>
 1      1          1     1        29.7    0.561
 2      1          2     2        22.6    0.666
 3      1          3     3        23.6    0.650
 4      1          4     4        18.9    0.720
 5      1          5     5        25.9    0.619
 6      1          6     6        22.6    0.666
 7      1          7     7        28.3    0.583
 8      1          8     8        21.2    0.688
 9      1          9     9        26.6    0.605
10      1         10    10        23.8    0.649
# ℹ 3,990 more rows
…
Our posterior is literally made up of educated parameter guesses by the algorithm. Which estimates are more likely given the data?

tidy_draws(fit.1.bayesian)

# A tibble: 4,000 × 15
   .chain .iteration .draw b_Intercept b_parent sigma Intercept lprior   lp__
    <int>      <int> <int>       <dbl>    <dbl> <dbl>     <dbl>  <dbl>  <dbl>
 1      1          1     1        29.7    0.561  2.21      68.1  -3.84 -2069.
 2      1          2     2        22.6    0.666  2.19      68.1  -3.83 -2068.
 3      1          3     3        23.6    0.650  2.20      68.1  -3.84 -2067.
 4      1          4     4        18.9    0.720  2.24      68.1  -3.85 -2068.
 5      1          5     5        25.9    0.619  2.23      68.2  -3.84 -2067.
 6      1          6     6        22.6    0.666  2.34      68.0  -3.88 -2069.
 7      1          7     7        28.3    0.583  2.23      68.2  -3.84 -2068.
 8      1          8     8        21.2    0.688  2.23      68.2  -3.85 -2069.
 9      1          9     9        26.6    0.605  2.19      67.9  -3.84 -2069.
10      1         10    10        23.8    0.649  2.28      68.1  -3.86 -2067.
# ℹ 3,990 more rows
# ℹ 6 more variables: accept_stat__ <dbl>, treedepth__ <dbl>, stepsize__ <dbl>,
#   divergent__ <dbl>, n_leapfrog__ <dbl>, energy__ <dbl>
…
