Bayesian Statistics Spring 2025 - glm
…
Example

Code

library(readr)
mortality <- read_csv("https://raw.githubusercontent.com/josh-jackson/bayes/master/static/Lectures/mortality.csv")

mortality <- mortality %>% 
  mutate(IQ_c = IQ - mean(IQ)) %>% 
  select(-'...1')
mortality

# A tibble: 300 × 5
   Risky.behavior premature.d NOT.premature    IQ   IQ_c
            <dbl> <chr>               <dbl> <dbl>  <dbl>
 1             19 normal                  1    22  5.43 
 2             18 normal                  1    22  5.43 
 3             21 normal                  1    21  4.43 
 4             17 normal                  1    22  5.43 
 5             18 normal                  1    19  2.43 
 6             22 premature               0    19  2.43 
 7             18 normal                  1    16 -0.573
 8             11 premature               0    15 -1.57 
 9             21 normal                  1    16 -0.573
10             20 normal                  1    19  2.43 
# ℹ 290 more rows
…
career <- rep(NA, n)  # empty vector of choices for each individual
for (i in 1:n) {
    score     <- 0.5 * (1:3) + b * family_income[i]
    p         <- softmax(score[1], score[2], score[3])
    career[i] <- sample(1:3, size = 1, prob = p)
}

d <-
  tibble(career = career) %>% 
  mutate(family_income = family_income)
d

# A tibble: 500 × 2
   career family_income
    <int>         <dbl>
 1      3        0.354 
 2      3        0.366 
 3      3        0.287 
 4      1        0.0800
 5      2        0.365 
 6      3        0.178 
 7      3        0.536 
 8      3        0.504 
 9      3        0.945 
10      3        0.341 
# ℹ 490 more rows
…
roach example

y – number of roaches caught. roach1 – pretreatment number of roaches. treatment – dummy for treatment senior – dummy for elderly residents exposure2 – number of days

Code

roach <- read_csv("https://github.com/TuringLang/TuringGLM.jl/raw/main/data/roaches.csv")
roach

# A tibble: 262 × 5
       y roach1 treatment senior exposure2
   <dbl>  <dbl>     <dbl>  <dbl>     <dbl>
 1   153 308            1      0      0.8 
 2   127 331.           1      0      0.6 
 3     7   1.67         1      0      1   
 4     7   3            1      0      1   
 5     0   2            1      0      1.14
 6     0   0            1      0      1   
 7    73  70            1      0      0.8 
 8    24  64.6          1      0      1.14
 9     2   1            0      0      1   
10     2  14            0      0      1.14
# ℹ 252 more rows
…
