Bayesian Statistics Spring 2025 - mlm
…
mlm.1 %>%
  spread_draws(r_ID[ID, term]) 

# A tibble: 1,456,000 × 6
# Groups:   ID, term [91]
      ID term          r_ID .chain .iteration .draw
   <int> <chr>        <dbl>  <int>      <int> <int>
 1     6 Intercept  0.0133       1          1     1
 2     6 Intercept -0.00438      1          2     2
 3     6 Intercept  0.0214       1          3     3
 4     6 Intercept  0.00738      1          4     4
 5     6 Intercept -0.0173       1          5     5
 6     6 Intercept -0.0386       1          6     6
 7     6 Intercept  0.0233       1          7     7
 8     6 Intercept -0.0351       1          8     8
 9     6 Intercept  0.0346       1          9     9
10     6 Intercept -0.0349       1         10    10
# ℹ 1,455,990 more rows

16000 samples (4 chains * 4k iterations) * 91 people

mlm.1 %>%
  spread_draws(r_ID[ID]) 

# A tibble: 1,456,000 × 5
# Groups:   ID [91]
      ID     r_ID .chain .iteration .draw
   <int>    <dbl>  <int>      <int> <int>
 1     6  0.0133       1          1     1
 2     6 -0.00438      1          2     2
 3     6  0.0214       1          3     3
 4     6  0.00738      1          4     4
 5     6 -0.0173       1          5     5
 6     6 -0.0386       1          6     6
 7     6  0.0233       1          7     7
 8     6 -0.0351       1          8     8
 9     6  0.0346       1          9     9
10     6 -0.0349       1         10    10
# ℹ 1,455,990 more rows

mlm.1 %>%
  spread_draws(r_ID[ID, term]) %>%
 median_qi()

# A tibble: 91 × 8
      ID term           r_ID   .lower   .upper .width .point .interval
   <int> <chr>         <dbl>    <dbl>    <dbl>  <dbl> <chr>  <chr>    
 1     6 Intercept  0.000562 -0.0491   0.0504    0.95 median qi       
 2    29 Intercept -0.0479   -0.106    0.0101    0.95 median qi       
 3    34 Intercept -0.0614   -0.118   -0.00512   0.95 median qi       
 4    36 Intercept -0.0219   -0.0784   0.0347    0.95 median qi       
 5    37 Intercept -0.00311  -0.0523   0.0464    0.95 median qi       
 6    48 Intercept  0.0238   -0.0266   0.0727    0.95 median qi       
 7    53 Intercept  0.000709 -0.0557   0.0567    0.95 median qi       
 8    54 Intercept  0.0454   -0.00412  0.0944    0.95 median qi       
 9    58 Intercept  0.0369   -0.0122   0.0861    0.95 median qi       
10    61 Intercept -0.0749   -0.133   -0.0166    0.95 median qi       
# ℹ 81 more rows
…
Think back to {lme4} and ranef coef and fixef functions.

What do each of these describe?

What scale is our random effect (typically) in?

mlm.1 %>%
  spread_draws(b_Intercept, r_ID[ID, term]) 

# A tibble: 1,456,000 × 7
# Groups:   ID, term [91]
   .chain .iteration .draw b_Intercept    ID term          r_ID
    <int>      <int> <int>       <dbl> <int> <chr>        <dbl>
 1      1          1     1       0.189     6 Intercept  0.0133 
 2      1          1     1       0.189    29 Intercept -0.0511 
 3      1          1     1       0.189    34 Intercept -0.0897 
 4      1          1     1       0.189    36 Intercept -0.0200 
 5      1          1     1       0.189    37 Intercept  0.0412 
 6      1          1     1       0.189    48 Intercept  0.0104 
 7      1          1     1       0.189    53 Intercept  0.0844 
 8      1          1     1       0.189    54 Intercept -0.00270
 9      1          1     1       0.189    58 Intercept  0.0389 
10      1          1     1       0.189    61 Intercept -0.0712 
# ℹ 1,455,990 more rows

mlm.1 %>%
  spread_draws(b_Intercept, r_ID[ID, term]) %>% 
   mutate(person_I = b_Intercept + r_ID) 

# A tibble: 1,456,000 × 8
# Groups:   ID, term [91]
   .chain .iteration .draw b_Intercept    ID term          r_ID person_I
    <int>      <int> <int>       <dbl> <int> <chr>        <dbl>    <dbl>
 1      1          1     1       0.189     6 Intercept  0.0133    0.203 
 2      1          1     1       0.189    29 Intercept -0.0511    0.138 
 3      1          1     1       0.189    34 Intercept -0.0897    0.0997
 4      1          1     1       0.189    36 Intercept -0.0200    0.169 
 5      1          1     1       0.189    37 Intercept  0.0412    0.230 
 6      1          1     1       0.189    48 Intercept  0.0104    0.200 
 7      1          1     1       0.189    53 Intercept  0.0844    0.274 
 8      1          1     1       0.189    54 Intercept -0.00270   0.187 
 9      1          1     1       0.189    58 Intercept  0.0389    0.228 
10      1          1     1       0.189    61 Intercept -0.0712    0.118 
# ℹ 1,455,990 more rows
…
mlm.4 %>%
  spread_draws(r_ID[ID,term]) 

# A tibble: 2,184,000 × 6
# Groups:   ID, term [182]
      ID term         r_ID .chain .iteration .draw
   <int> <chr>       <dbl>  <int>      <int> <int>
 1     6 Intercept  0.0380      1          1     1
 2     6 Intercept  0.0503      1          2     2
 3     6 Intercept  0.0210      1          3     3
 4     6 Intercept  0.0227      1          4     4
 5     6 Intercept -0.0346      1          5     5
 6     6 Intercept -0.0238      1          6     6
 7     6 Intercept  0.0162      1          7     7
 8     6 Intercept  0.0454      1          8     8
 9     6 Intercept  0.0639      1          9     9
10     6 Intercept  0.0639      1         10    10
# ℹ 2,183,990 more rows
…
mlm.3 <- add_criterion(mlm.3, "loo")
mlm.4 <- add_criterion(mlm.4, "loo")
loo_compare(mlm.3, mlm.4, criterion = "loo")

      elpd_diff se_diff
mlm.3  0.0       0.0   
mlm.4 -0.5       0.5   

library(readr)
esm <- read_csv("https://raw.githubusercontent.com/josh-jackson/bayes2022/main/static/Lectures/esm_w1_RENAMED.csv")
esm

# A tibble: 11,540 × 89
    ...1 esm.IDnum.w1 esm.PRO01.w1 esm.PRO02.w1 esm.PRO03.w1
   <dbl>        <dbl>        <dbl>        <dbl>        <dbl>
 1     1        10549           17            1            1
 2     2        10547           57            1            1
 3     3        10547           57            1            1
 4     4        10539           51            1            1
 5     5        10547           57            1            1
 6     6        10549           17            1            1
 7     7        10539           51            1            1
 8     8        10549           17            1            1
 9     9        10547           57            1            1
10    10        10526           36            1            1
# ℹ 11,530 more rows
# ℹ 84 more variables: esm.startDateTime.w1 <chr>, esm.PRO04.w1 <dbl>,
#   esm.PRO05.w1 <dbl>, esm.PRO06.w1 <dbl>, esm.PRO07.w1 <dbl>,
#   esm.endDateTime.w1 <chr>, esm.OR.w1 <chr>, esm.NQ11.w1 <dbl>,
#   esm.NQ12.w1 <dbl>, esm.EXT.w1 <dbl>, esm.AGR.w1 <dbl>, esm.CON.w1 <dbl>,
#   esm.NEU.w1 <dbl>, `esm.NQ11+1.w1` <dbl>, `esm.NQ12+1.w1` <dbl>,
#   `esm.EXT+1.w1` <dbl>, `esm.AGR+1.w1` <dbl>, `esm.CON+1.w1` <dbl>, …
…
Code

melsm %>% 
  data_grid(day01 = seq_range(day01, n = 20), .model= melsm) %>% 
  add_epred_draws(melsm.1 )

# A tibble: 160,000 × 14
# Groups:   day01, P_A.std, day, P_A.lag, N_A.lag, steps.pm, steps.pmd,
#   record_id, N_A.std, .row [20]
   day01 P_A.std   day P_A.lag N_A.lag steps.pm steps.pmd record_id N_A.std
   <dbl>   <dbl> <dbl>   <dbl>   <dbl>    <dbl>     <dbl>     <dbl>   <dbl>
 1     0  0.0141    41  0.0239  -0.418   0.0480 -0.000672        96  -0.351
 2     0  0.0141    41  0.0239  -0.418   0.0480 -0.000672        96  -0.351
 3     0  0.0141    41  0.0239  -0.418   0.0480 -0.000672        96  -0.351
 4     0  0.0141    41  0.0239  -0.418   0.0480 -0.000672        96  -0.351
 5     0  0.0141    41  0.0239  -0.418   0.0480 -0.000672        96  -0.351
 6     0  0.0141    41  0.0239  -0.418   0.0480 -0.000672        96  -0.351
 7     0  0.0141    41  0.0239  -0.418   0.0480 -0.000672        96  -0.351
 8     0  0.0141    41  0.0239  -0.418   0.0480 -0.000672        96  -0.351
 9     0  0.0141    41  0.0239  -0.418   0.0480 -0.000672        96  -0.351
10     0  0.0141    41  0.0239  -0.418   0.0480 -0.000672        96  -0.351
# ℹ 159,990 more rows
# ℹ 5 more variables: .row <int>, .chain <int>, .iteration <int>, .draw <int>,
#   .epred <dbl>

If we do not care about random effects, specify re_formula = NA

Code

fixed.slope<- melsm %>% 
  data_grid(day01 = seq_range(day01, n = 20)) %>% 
  add_epred_draws(melsm.1, re_formula = NA )
  fixed.slope

# A tibble: 160,000 × 6
# Groups:   day01, .row [20]
   day01  .row .chain .iteration .draw   .epred
   <dbl> <int>  <int>      <int> <int>    <dbl>
 1     0     1     NA         NA     1 -0.00964
 2     0     1     NA         NA     2  0.0705 
 3     0     1     NA         NA     3  0.171  
 4     0     1     NA         NA     4  0.133  
 5     0     1     NA         NA     5  0.0913 
 6     0     1     NA         NA     6  0.0832 
 7     0     1     NA         NA     7  0.0691 
 8     0     1     NA         NA     8  0.111  
 9     0     1     NA         NA     9  0.121  
10     0     1     NA         NA    10  0.0866 
# ℹ 159,990 more rows

If we want random effects we need to specify the variable to get ALL levels.

melsm %>% 
  data_grid(day01 = seq_range(day01, n = 20), record_id) 

# A tibble: 3,860 × 2
   day01 record_id
   <dbl>     <int>
 1     0         1
 2     0         2
 3     0         3
 4     0         4
 5     0         5
 6     0         6
 7     0         7
 8     0         8
 9     0         9
10     0        10
# ℹ 3,850 more rows

193 people * 20 = 3860

Then we need to state re_forumla = NULL (which is the default)

Code

melsm %>% 
  data_grid(day01 = seq_range(day01, n = 20), record_id) %>% 
  add_epred_draws(melsm.1, re_formula = NULL )

# A tibble: 30,880,000 × 7
# Groups:   day01, record_id, .row [3,860]
   day01 record_id  .row .chain .iteration .draw .epred
   <dbl>     <int> <int>  <int>      <int> <int>  <dbl>
 1     0         1     1     NA         NA     1  0.186
 2     0         1     1     NA         NA     2  0.141
 3     0         1     1     NA         NA     3  0.126
 4     0         1     1     NA         NA     4  0.238
 5     0         1     1     NA         NA     5  0.216
 6     0         1     1     NA         NA     6  0.168
 7     0         1     1     NA         NA     7  0.148
 8     0         1     1     NA         NA     8  0.153
 9     0         1     1     NA         NA     9  0.228
10     0         1     1     NA         NA    10  0.183
# ℹ 30,879,990 more rows
…
5 * 3 = 15 rows

Code

 melsm %>% 
  data_grid(steps.pm = seq_range(steps.pm, n = 5), P_A.std = c(-1,0,1), day01 = .5, .model = melsm) %>% 
  add_epred_draws(melsm.1i, re_formula = NA) 

# A tibble: 120,000 × 14
# Groups:   steps.pm, P_A.std, day01, day, P_A.lag, N_A.lag, steps.pmd,
#   record_id, N_A.std, .row [15]
   steps.pm P_A.std day01   day P_A.lag N_A.lag steps.pmd record_id N_A.std
      <dbl>   <dbl> <dbl> <dbl>   <dbl>   <dbl>     <dbl>     <dbl>   <dbl>
 1    -1.41      -1   0.5    41  0.0239  -0.418 -0.000672        96  -0.351
 2    -1.41      -1   0.5    41  0.0239  -0.418 -0.000672        96  -0.351
 3    -1.41      -1   0.5    41  0.0239  -0.418 -0.000672        96  -0.351
 4    -1.41      -1   0.5    41  0.0239  -0.418 -0.000672        96  -0.351
 5    -1.41      -1   0.5    41  0.0239  -0.418 -0.000672        96  -0.351
 6    -1.41      -1   0.5    41  0.0239  -0.418 -0.000672        96  -0.351
 7    -1.41      -1   0.5    41  0.0239  -0.418 -0.000672        96  -0.351
 8    -1.41      -1   0.5    41  0.0239  -0.418 -0.000672        96  -0.351
 9    -1.41      -1   0.5    41  0.0239  -0.418 -0.000672        96  -0.351
10    -1.41      -1   0.5    41  0.0239  -0.418 -0.000672        96  -0.351
# ℹ 119,990 more rows
# ℹ 5 more variables: .row <int>, .chain <int>, .iteration <int>, .draw <int>,
#   .epred <dbl>
…
