Bayesian Statistics Spring 2025 - Regression 1
…
{tidybayes}

{tidybayes} is a helpful package to work with your posterior. It consists of a number of helper functions to put your posterior in a format to neatly graph and or compute values. Once we get to more complicated models this will be invaluable.

Please take a look at the overview and download the package http://mjskay.github.io/tidybayes/articles/tidy-brms.html

{marginaleffects} and {bayestestR} from easystats are two other packages we will routinely use

posterior samples/draws

1k rows indicate 1k parameter samples (we told the algo to give us 1k). All of these parameters represent possible states of the world given our data. Parameters more consistent with the data will appear more often.

tidy_draws(fit.1)

# A tibble: 1,000 × 15
   .chain .iteration .draw b_Intercept b_parent.c sigma Intercept lprior   lp__
    <int>      <int> <int>       <dbl>      <dbl> <dbl>     <dbl>  <dbl>  <dbl>
 1      1          1     1        68.1      0.649  2.22      68.1  -7.30 -2070.
 2      1          2     2        68.0      0.673  2.33      68.0  -7.38 -2072.
 3      1          3     3        68.0      0.700  2.33      68.0  -7.38 -2073.
 4      1          4     4        68.1      0.697  2.32      68.1  -7.37 -2072.
 5      1          5     5        68.1      0.644  2.31      68.1  -7.36 -2071.
 6      1          6     6        68.0      0.649  2.18      68.0  -7.26 -2071.
 7      1          7     7        68.0      0.662  2.23      68.0  -7.30 -2070.
 8      1          8     8        68.0      0.602  2.22      68.0  -7.30 -2071.
 9      1          9     9        68.0      0.673  2.24      68.0  -7.31 -2071.
10      1         10    10        68.2      0.652  2.25      68.2  -7.32 -2071 
# ℹ 990 more rows
# ℹ 6 more variables: accept_stat__ <dbl>, treedepth__ <dbl>, stepsize__ <dbl>,
#   divergent__ <dbl>, n_leapfrog__ <dbl>, energy__ <dbl>

spread_draws

Instead of looking at all of our “draws” or samples for all variables we often want to look at just some of them. Spread draws is an oft used function similar to select in {dplyr}

fit.1 %>% 
spread_draws(b_Intercept, b_parent.c)

# A tibble: 1,000 × 5
   .chain .iteration .draw b_Intercept b_parent.c
    <int>      <int> <int>       <dbl>      <dbl>
 1      1          1     1        68.1      0.649
 2      1          2     2        68.0      0.673
 3      1          3     3        68.0      0.700
 4      1          4     4        68.1      0.697
 5      1          5     5        68.1      0.644
 6      1          6     6        68.0      0.649
 7      1          7     7        68.0      0.662
 8      1          8     8        68.0      0.602
 9      1          9     9        68.0      0.673
10      1         10    10        68.2      0.652
# ℹ 990 more rows
…
Most often we look at coefficients to interpret our models. This is fine, but it sub-optimal for a number of reasons, especially when we get to more complex models. We need to define the specific empirical quantity that would shed light on our research question. The estimand is the object of inquiry—it is the precise quantity about which we marshal data to draw an inference.

Raw parameters may be very difficult to interpret substantively. E.g., logistic. Even odd ratios are hard because odds are un-intuitive.

Predicted/fitted values

Much like in regular regression, we will use the fitted/predicted/Y-hats values to interpret our models.

Code

library(broom)
augment(lm(child ~ parent, galton.data))

# A tibble: 928 × 8
   child parent .fitted .resid    .hat .sigma .cooksd .std.resid
   <dbl>  <dbl>   <dbl>  <dbl>   <dbl>  <dbl>   <dbl>      <dbl>
 1  61.7   70.5    69.5  -7.81 0.00270   2.22 0.0165       -3.49
 2  61.7   68.5    68.2  -6.51 0.00109   2.23 0.00462      -2.91
 3  61.7   65.5    66.3  -4.57 0.00374   2.23 0.00787      -2.05
 4  61.7   64.5    65.6  -3.93 0.00597   2.24 0.00931      -1.76
 5  61.7   64      65.3  -3.60 0.00735   2.24 0.00966      -1.62
 6  62.2   67.5    67.6  -5.37 0.00130   2.23 0.00374      -2.40
 7  62.2   67.5    67.6  -5.37 0.00130   2.23 0.00374      -2.40
 8  62.2   67.5    67.6  -5.37 0.00130   2.23 0.00374      -2.40
 9  62.2   66.5    66.9  -4.72 0.00218   2.23 0.00487      -2.11
10  62.2   66.5    66.9  -4.72 0.00218   2.23 0.00487      -2.11
# ℹ 918 more rows
…
Predicted/fitted values

If we examine a expected/predicted mean at a certain value across all of our samples we directly compute our uncertainty. In contrast to frequentist where we have to use an ugly equation, which has big assumptions.

Code

fit.1 %>% 
  spread_draws(b_Intercept,b_parent.c) %>% 
  select(b_Intercept,b_parent.c) %>% 
  mutate(mu_at_64 = b_Intercept + (b_parent.c * -4.3))

# A tibble: 1,000 × 3
   b_Intercept b_parent.c mu_at_64
         <dbl>      <dbl>    <dbl>
 1        68.1      0.649     65.3
 2        68.0      0.673     65.1
 3        68.0      0.700     65.0
 4        68.1      0.697     65.1
 5        68.1      0.644     65.4
 6        68.0      0.649     65.2
 7        68.0      0.662     65.2
 8        68.0      0.602     65.4
 9        68.0      0.673     65.1
10        68.2      0.652     65.4
# ℹ 990 more rows
…
Feed reference grid to tidybayes

The second step after you have the data/reference grid is to feed it into the model. You may have done something similar using the ‘predict’ functions of base R or {lme4}. We will use the functions from {marginaleffects} or {tidybayes}, both of which operate similarly. {brms} also has a predict function, but its not as user friendly

Notice how the predicted values are “.epred”

Notice the number of rows. Where did it come from?

Code

galton.data %>% 
data_grid(parent.c = seq_range(parent.c, n = 10)) %>% 
 add_epred_draws(fit.1)

# A tibble: 10,000 × 6
# Groups:   parent.c, .row [10]
   parent.c  .row .chain .iteration .draw .epred
      <dbl> <int>  <int>      <int> <int>  <dbl>
 1    -4.31     1     NA         NA     1   65.3
 2    -4.31     1     NA         NA     2   65.1
 3    -4.31     1     NA         NA     3   65.0
 4    -4.31     1     NA         NA     4   65.1
 5    -4.31     1     NA         NA     5   65.4
 6    -4.31     1     NA         NA     6   65.2
 7    -4.31     1     NA         NA     7   65.2
 8    -4.31     1     NA         NA     8   65.4
 9    -4.31     1     NA         NA     9   65.1
10    -4.31     1     NA         NA    10   65.4
# ℹ 9,990 more rows
…
predicted values

Each .prediction is feeding in a parent.c value we prespecified into our model \(\hat{Y}_i = \beta_0 + \beta_1 X + \epsilon_i\). Each row of the posterior has different estimates for each of the three parameters. With epred we were only including 2 parameters as it naturally averages over the uncertainty.

Code

galton.data %>% 
data_grid(parent.c = seq_range(parent.c, n = 10)) %>% 
  add_predicted_draws(fit.1)

# A tibble: 10,000 × 6
# Groups:   parent.c, .row [10]
   parent.c  .row .chain .iteration .draw .prediction
      <dbl> <int>  <int>      <int> <int>       <dbl>
 1    -4.31     1     NA         NA     1        64.1
 2    -4.31     1     NA         NA     2        65.3
 3    -4.31     1     NA         NA     3        65.1
 4    -4.31     1     NA         NA     4        61.1
 5    -4.31     1     NA         NA     5        63.5
 6    -4.31     1     NA         NA     6        64.0
 7    -4.31     1     NA         NA     7        66.4
 8    -4.31     1     NA         NA     8        69.1
 9    -4.31     1     NA         NA     9        69.4
10    -4.31     1     NA         NA    10        64.5
# ℹ 9,990 more rows
…
